<?xml version="1.0" encoding="utf-8"?>
<!-- Generator: Adobe Illustrator 16.0.0, SVG Export Plug-In . SVG Version: 6.00 Build 0)  -->
<!DOCTYPE svg PUBLIC "-//W3C//DTD SVG 1.1//EN" "http://www.w3.org/Graphics/SVG/1.1/DTD/svg11.dtd">
<svg version="1.1" id="Layer_1" xmlns="http://www.w3.org/2000/svg" xmlns:xlink="http://www.w3.org/1999/xlink" x="0px" y="0px"
	 width="32px" height="32px" viewBox="0 0 32 32" enable-background="new 0 0 32 32" xml:space="preserve">
<path fill="none" d="M8.791,22.401c-1.816-0.37-2.281-1.623-2.292-6.184c-0.008-3.221,0.129-4.316,0.674-5.373
	c0.422-0.819,0.931-1.078,2.411-1.23c1.437-0.147,9.074-0.155,12.11-0.012c4.232,0.261,3.751,2.194,3.799,6.028
	c0.049,3.976-0.062,4.84-0.747,5.854c-0.679,1.004-0.419,0.972-8.288,1.01C12.461,22.515,9.147,22.475,8.791,22.401L8.791,22.401z
	 M19.098,15.968c-1.775-1.15-3.672-2.369-4.633-2.947c0.042,1.611,0.007,4.542,0.032,5.985
	C15.904,18.158,18.047,16.737,19.098,15.968L19.098,15.968z"/>
</svg>
