<?xml version="1.0" encoding="utf-8"?>
<!-- Generator: Adobe Illustrator 16.0.0, SVG Export Plug-In . SVG Version: 6.00 Build 0)  -->
<!DOCTYPE svg PUBLIC "-//W3C//DTD SVG 1.1//EN" "http://www.w3.org/Graphics/SVG/1.1/DTD/svg11.dtd">
<svg version="1.1" id="Layer_1" xmlns="http://www.w3.org/2000/svg" xmlns:xlink="http://www.w3.org/1999/xlink" x="0px" y="0px"
	 viewBox="0 0 176 60" enable-background="new 0 0 176 60" xml:space="preserve">
<polygon fill="#1D1D1B" points="1.007,1.533 3.367,1.533 13.136,15.998 13.136,1.533 14.88,1.533 14.88,18.971 13.136,18.971 
	2.752,3.635 2.752,18.971 1.007,18.971 "/>
<path fill="#1D1D1B" d="M26.349,1.532h1.935l7.481,17.438h-1.888l-2.524-5.853h-8.118l-2.526,5.853h-1.886L26.349,1.532z
	 M30.667,11.537l-3.351-7.998l-3.397,7.998H30.667z"/>
<polygon fill="#1D1D1B" points="40.176,3.114 36.166,3.114 36.166,1.533 45.887,1.533 45.887,3.114 41.921,3.114 41.921,18.971 
	40.176,18.971 "/>
<path fill="#1D1D1B" d="M53.815,1.532h1.935l7.481,17.438h-1.888l-2.524-5.853h-8.118l-2.526,5.853h-1.886L53.815,1.532z
	 M58.132,11.537l-3.35-7.998l-3.399,7.998H58.132z"/>
<polygon fill="#1D1D1B" points="67.171,1.533 68.916,1.533 68.916,17.391 76.137,17.391 76.137,18.971 67.171,18.971 "/>
<polygon fill="#1D1D1B" points="82.13,13.143 76.066,1.533 77.979,1.533 83.002,11.325 88.029,1.533 89.939,1.533 83.875,13.143 
	83.875,18.971 82.13,18.971 "/>
<path fill="#1D1D1B" d="M1,25.308h4.15c1.776,0,3.12,0.297,4.033,0.888c0.638,0.416,1.147,0.964,1.523,1.644
	c0.376,0.681,0.564,1.404,0.564,2.173c0,1.439-0.657,2.622-1.968,3.549c0.928,0.386,1.647,0.97,2.16,1.752
	c0.511,0.786,0.769,1.69,0.769,2.713c0,0.815-0.197,1.588-0.588,2.315c-0.392,0.728-0.923,1.311-1.596,1.739
	c-0.479,0.304-1.032,0.528-1.657,0.673c-0.622,0.143-1.096,0.225-1.414,0.24c-0.32,0.014-0.921,0.031-1.799,0.046H1V25.308z
	 M4.694,32.89c1.6,0,2.72-0.175,3.36-0.527c0.433-0.225,0.78-0.569,1.043-1.031c0.264-0.465,0.396-0.943,0.396-1.441
	c0-0.479-0.132-0.943-0.396-1.39c-0.264-0.449-0.604-0.8-1.02-1.058c-0.687-0.415-1.769-0.59-3.239-0.527H2.776v5.975H4.694z
	 M4.958,41.432c1.743,0.034,2.991-0.145,3.743-0.526c0.512-0.271,0.932-0.678,1.261-1.211c0.328-0.537,0.483-1.084,0.466-1.646
	c0.017-0.753-0.175-1.41-0.575-1.98c-0.4-0.566-0.944-0.969-1.631-1.211c-0.689-0.238-1.88-0.358-3.577-0.358h-1.87v6.933H4.958z"/>
<path fill="#1D1D1B" d="M34.665,34.139c0,2.561-0.92,4.734-2.759,6.525c-1.839,1.792-4.047,2.689-6.623,2.689
	c-2.511,0-4.699-0.889-6.562-2.663c-1.864-1.776-2.795-3.921-2.795-6.432c0-2.561,0.915-4.736,2.747-6.527
	c1.832-1.793,4.035-2.688,6.611-2.688c2.526,0,4.722,0.888,6.586,2.664C33.734,29.483,34.665,31.626,34.665,34.139 M25.307,26.724
	c-2.096,0.016-3.888,0.759-5.375,2.229c-1.488,1.474-2.231,3.239-2.231,5.306c0,2.03,0.759,3.771,2.279,5.218
	c1.521,1.446,3.294,2.173,5.327,2.173c2.096,0,3.883-0.733,5.363-2.197c1.48-1.464,2.219-3.235,2.219-5.313
	c0-2.031-0.752-3.772-2.255-5.221c-1.504-1.446-3.28-2.171-5.327-2.171V26.724z"/>
<polygon fill="#1D1D1B" points="39.464,25.308 41.239,25.308 41.239,41.432 48.582,41.432 48.582,43.039 39.464,43.039 "/>
<path fill="#1D1D1B" d="M53.069,38.073c0.033,0.992,0.387,1.837,1.067,2.532c0.68,0.695,1.508,1.042,2.485,1.042
	c1.023,0,1.891-0.33,2.602-0.994c0.712-0.662,1.069-1.501,1.069-2.508c0-1.022-0.409-1.865-1.225-2.521
	c-0.544-0.448-1.456-0.84-2.735-1.174c-1.488-0.385-2.528-0.832-3.121-1.346c-0.991-0.846-1.487-1.951-1.487-3.312
	c0-1.405,0.483-2.555,1.453-3.442c0.967-0.888,2.162-1.333,3.586-1.333c1.359,0,2.516,0.465,3.468,1.392
	c0.952,0.93,1.42,2.063,1.404,3.409h-1.849c-0.063-0.912-0.392-1.657-0.983-2.232c-0.592-0.576-1.344-0.863-2.255-0.863
	c-0.848,0-1.567,0.304-2.159,0.912c-0.593,0.608-0.888,1.336-0.888,2.184c0,0.416,0.072,0.784,0.215,1.104
	c0.145,0.319,0.309,0.574,0.492,0.768c0.185,0.193,0.459,0.375,0.828,0.552c0.368,0.176,0.673,0.304,0.912,0.385
	c0.241,0.077,0.591,0.184,1.056,0.312c0.08,0.03,0.253,0.079,0.516,0.143c0.264,0.064,0.445,0.111,0.541,0.146
	c0.096,0.031,0.255,0.081,0.479,0.155c0.224,0.07,0.396,0.134,0.518,0.19c0.119,0.057,0.268,0.129,0.443,0.216
	c0.175,0.088,0.335,0.19,0.479,0.3c0.145,0.113,0.29,0.233,0.433,0.362c1.104,0.959,1.655,2.198,1.655,3.717
	c0,1.441-0.537,2.663-1.607,3.672c-1.072,1.009-2.336,1.512-3.792,1.512c-1.534,0-2.838-0.5-3.911-1.499
	c-1.071-1-1.599-2.259-1.582-3.779H53.069z"/>
<polygon fill="#1D1D1B" points="66.339,25.308 68.114,25.308 68.114,33.107 77.304,33.107 77.304,25.308 79.081,25.308 
	79.081,43.039 77.304,43.039 77.304,34.714 68.114,34.714 68.114,43.039 66.339,43.039 "/>
<path fill="#1D1D1B" d="M90.742,25.308h1.969l7.605,17.733h-1.918L95.83,37.09h-8.255l-2.568,5.951h-1.917L90.742,25.308z
	 M95.135,35.48l-3.408-8.132l-3.456,8.132H95.135z"/>
<polygon fill="#1D1D1B" points="104.322,25.308 106.1,25.308 106.1,35.505 114.283,25.308 116.537,25.308 109.531,33.946 
	116.537,43.039 114.33,43.039 108.404,35.362 106.1,38.193 106.1,43.039 104.322,43.039 "/>
<path fill="#1D1D1B" d="M138.398,34.139c0,2.561-0.922,4.734-2.762,6.525c-1.838,1.792-4.045,2.689-6.621,2.689
	c-2.512,0-4.699-0.889-6.562-2.663c-1.863-1.776-2.797-3.921-2.797-6.432c0-2.561,0.916-4.736,2.748-6.527
	c1.832-1.793,4.033-2.688,6.611-2.688c2.527,0,4.721,0.888,6.586,2.664C137.467,29.483,138.398,31.626,138.398,34.139
	 M129.039,26.724c-2.096,0.016-3.889,0.759-5.375,2.229c-1.486,1.474-2.23,3.239-2.23,5.306c0,2.03,0.76,3.771,2.277,5.218
	c1.521,1.446,3.297,2.173,5.328,2.173c2.098,0,3.883-0.733,5.363-2.197s2.219-3.235,2.219-5.313c0-2.031-0.752-3.772-2.256-5.221
	c-1.504-1.446-3.279-2.171-5.326-2.171V26.724z"/>
<polygon fill="#1D1D1B" points="141.611,25.308 143.557,25.308 149.771,40.831 156.035,25.308 157.979,25.308 150.611,43.039 
	148.932,43.039 "/>
<path fill="#1D1D1B" d="M165.129,25.308h1.969l7.605,17.733h-1.918l-2.568-5.951h-8.256l-2.566,5.951h-1.92L165.129,25.308z
	 M169.521,35.48l-3.408-8.132l-3.455,8.132H169.521z"/>
</svg>
